[
    {
        "name": "colymba/gridfield-bulk-editing-tools",
        "version": "dev-master",
        "version_normalized": "9999999-dev",
        "source": {
            "type": "git",
            "url": "https://github.com/colymba/GridFieldBulkEditingTools.git",
            "reference": "0e6f2e6efbe8d0e9b397d51a5cd402886a0f2e96"
        },
        "dist": {
            "type": "zip",
            "url": "https://api.github.com/repos/colymba/GridFieldBulkEditingTools/zipball/0e6f2e6efbe8d0e9b397d51a5cd402886a0f2e96",
            "reference": "0e6f2e6efbe8d0e9b397d51a5cd402886a0f2e96",
            "shasum": ""
        },
        "require": {
            "silverstripe/framework": ">=3.1"
        },
        "time": "2016-11-16T08:47:05+00:00",
        "type": "silverstripe-module",
        "installation-source": "dist",
        "notification-url": "https://packagist.org/downloads/",
        "license": [
            "BSD Simplified"
        ],
        "authors": [
            {
                "name": "Thierry Francois",
                "homepage": "http://colymba.com"
            },
            {
                "name": "GitHub contributors",
                "homepage": "https://github.com/colymba/GridFieldBulkEditingTools/contributors"
            }
        ],
        "description": "SilverStripe 3 GridField component to upload images and edit records in bulk",
        "homepage": "https://github.com/colymba/GridFieldBulkEditingTools",
        "keywords": [
            "Image upload",
            "bulk upload",
            "gridfield bulk upload",
            "silverstripe"
        ]
    },
    {
        "name": "colymba/gridfield-gallery-theme",
        "version": "dev-master",
        "version_normalized": "9999999-dev",
        "source": {
            "type": "git",
            "url": "https://github.com/colymba/GridFieldGalleryTheme.git",
            "reference": "d1279376dbd1e5a0fde33c7e899220645aabfd5d"
        },
        "dist": {
            "type": "zip",
            "url": "https://api.github.com/repos/colymba/GridFieldGalleryTheme/zipball/d1279376dbd1e5a0fde33c7e899220645aabfd5d",
            "reference": "d1279376dbd1e5a0fde33c7e899220645aabfd5d",
            "shasum": ""
        },
        "require": {
            "silverstripe/cms": ">=3.0"
        },
        "time": "2016-02-17T07:14:12+00:00",
        "type": "silverstripe-module",
        "installation-source": "dist",
        "notification-url": "https://packagist.org/downloads/",
        "license": [
            "BSD Simplified"
        ],
        "authors": [
            {
                "name": "Thierry Francois",
                "homepage": "http://colymba.com"
            },
            {
                "name": "GitHub contributors",
                "homepage": "https://github.com/colymba/GridFieldGalleryTheme/graphs/contributors"
            }
        ],
        "description": "SilverStripe 3 GridField component adding file or image thumbnail gallery view",
        "homepage": "https://github.com/colymba/GridFieldGalleryTheme",
        "keywords": [
            "gridfield gallery theme",
            "gridfield image gallery theme",
            "gridfield theme",
            "gridfield thumbnail",
            "gridfield thumbnail view",
            "silverstripe"
        ]
    },
    {
        "name": "composer/installers",
        "version": "dev-master",
        "version_normalized": "9999999-dev",
        "source": {
            "type": "git",
            "url": "https://github.com/composer/installers.git",
            "reference": "b840fd2500dacddf0da3e6e4726001aaf103a020"
        },
        "dist": {
            "type": "zip",
            "url": "https://api.github.com/repos/composer/installers/zipball/b840fd2500dacddf0da3e6e4726001aaf103a020",
            "reference": "b840fd2500dacddf0da3e6e4726001aaf103a020",
            "shasum": ""
        },
        "require": {
            "composer-plugin-api": "^1.0"
        },
        "replace": {
            "roundcube/plugin-installer": "*",
            "shama/baton": "*"
        },
        "require-dev": {
            "composer/composer": "1.0.*@dev",
            "phpunit/phpunit": "4.1.*"
        },
        "time": "2016-11-23T19:56:18+00:00",
        "type": "composer-plugin",
        "extra": {
            "class": "Composer\\Installers\\Plugin",
            "branch-alias": {
                "dev-master": "1.0-dev"
            }
        },
        "installation-source": "dist",
        "autoload": {
            "psr-4": {
                "Composer\\Installers\\": "src/Composer/Installers"
            }
        },
        "notification-url": "https://packagist.org/downloads/",
        "license": [
            "MIT"
        ],
        "authors": [
            {
                "name": "Kyle Robinson Young",
                "email": "kyle@dontkry.com",
                "homepage": "https://github.com/shama"
            }
        ],
        "description": "A multi-framework Composer library installer",
        "homepage": "https://composer.github.io/installers/",
        "keywords": [
            "Craft",
            "Dolibarr",
            "Hurad",
            "ImageCMS",
            "Kanboard",
            "MODX Evo",
            "Mautic",
            "OXID",
            "Plentymarkets",
            "Porto",
            "RadPHP",
            "SMF",
            "Thelia",
            "WolfCMS",
            "agl",
            "aimeos",
            "annotatecms",
            "attogram",
            "bitrix",
            "cakephp",
            "chef",
            "cockpit",
            "codeigniter",
            "concrete5",
            "croogo",
            "dokuwiki",
            "drupal",
            "elgg",
            "expressionengine",
            "fuelphp",
            "grav",
            "installer",
            "joomla",
            "kohana",
            "laravel",
            "lithium",
            "magento",
            "mako",
            "mediawiki",
            "modulework",
            "moodle",
            "phpbb",
            "piwik",
            "ppi",
            "puppet",
            "reindex",
            "roundcube",
            "shopware",
            "silverstripe",
            "symfony",
            "typo3",
            "wordpress",
            "yawik",
            "zend",
            "zikula"
        ]
    },
    {
        "name": "doctrine/annotations",
        "version": "v1.4.0",
        "version_normalized": "1.4.0.0",
        "source": {
            "type": "git",
            "url": "https://github.com/doctrine/annotations.git",
            "reference": "54cacc9b81758b14e3ce750f205a393d52339e97"
        },
        "dist": {
            "type": "zip",
            "url": "https://api.github.com/repos/doctrine/annotations/zipball/54cacc9b81758b14e3ce750f205a393d52339e97",
            "reference": "54cacc9b81758b14e3ce750f205a393d52339e97",
            "shasum": ""
        },
        "require": {
            "doctrine/lexer": "1.*",
            "php": "^5.6 || ^7.0"
        },
        "require-dev": {
            "doctrine/cache": "1.*",
            "phpunit/phpunit": "^5.7"
        },
        "time": "2017-02-24T16:22:25+00:00",
        "type": "library",
        "extra": {
            "branch-alias": {
                "dev-master": "1.4.x-dev"
            }
        },
        "installation-source": "dist",
        "autoload": {
            "psr-4": {
                "Doctrine\\Common\\Annotations\\": "lib/Doctrine/Common/Annotations"
            }
        },
        "notification-url": "https://packagist.org/downloads/",
        "license": [
            "MIT"
        ],
        "authors": [
            {
                "name": "Roman Borschel",
                "email": "roman@code-factory.org"
            },
            {
                "name": "Benjamin Eberlei",
                "email": "kontakt@beberlei.de"
            },
            {
                "name": "Guilherme Blanco",
                "email": "guilhermeblanco@gmail.com"
            },
            {
                "name": "Jonathan Wage",
                "email": "jonwage@gmail.com"
            },
            {
                "name": "Johannes Schmitt",
                "email": "schmittjoh@gmail.com"
            }
        ],
        "description": "Docblock Annotations Parser",
        "homepage": "http://www.doctrine-project.org",
        "keywords": [
            "annotations",
            "docblock",
            "parser"
        ]
    },
    {
        "name": "doctrine/lexer",
        "version": "dev-master",
        "version_normalized": "9999999-dev",
        "source": {
            "type": "git",
            "url": "https://github.com/doctrine/lexer.git",
            "reference": "3cab40356d8f30a0bb9d817ed4c33c097a4f0edf"
        },
        "dist": {
            "type": "zip",
            "url": "https://api.github.com/repos/doctrine/lexer/zipball/3cab40356d8f30a0bb9d817ed4c33c097a4f0edf",
            "reference": "3cab40356d8f30a0bb9d817ed4c33c097a4f0edf",
            "shasum": ""
        },
        "require": {
            "php": ">=5.3.2"
        },
        "require-dev": {
            "phpunit/phpunit": "^4.5"
        },
        "time": "2018-09-01T01:23:47+00:00",
        "type": "library",
        "extra": {
            "branch-alias": {
                "dev-master": "1.0.x-dev"
            }
        },
        "installation-source": "source",
        "autoload": {
            "psr-4": {
                "Doctrine\\Common\\Lexer\\": "lib/Doctrine/Common/Lexer"
            }
        },
        "notification-url": "https://packagist.org/downloads/",
        "license": [
            "MIT"
        ],
        "authors": [
            {
                "name": "Roman Borschel",
                "email": "roman@code-factory.org"
            },
            {
                "name": "Guilherme Blanco",
                "email": "guilhermeblanco@gmail.com"
            },
            {
                "name": "Johannes Schmitt",
                "email": "schmittjoh@gmail.com"
            }
        ],
        "description": "PHP Doctrine Lexer parser library that can be used in Top-Down, Recursive Descent Parsers.",
        "homepage": "https://www.doctrine-project.org/projects/lexer.html",
        "keywords": [
            "annotations",
            "docblock",
            "lexer",
            "parser",
            "php"
        ]
    },
    {
        "name": "gdmedia/ss-auto-git-ignore",
        "version": "dev-master",
        "version_normalized": "9999999-dev",
        "source": {
            "type": "git",
            "url": "https://github.com/guru-digital/SSAutoGitIgnore.git",
            "reference": "0fd761b18305aa5c8aa35117d5b5b58cc006815d"
        },
        "dist": {
            "type": "zip",
            "url": "https://api.github.com/repos/guru-digital/SSAutoGitIgnore/zipball/0fd761b18305aa5c8aa35117d5b5b58cc006815d",
            "reference": "0fd761b18305aa5c8aa35117d5b5b58cc006815d",
            "shasum": ""
        },
        "time": "2016-07-27T19:24:49+00:00",
        "type": "library",
        "installation-source": "dist",
        "autoload": {
            "psr-0": {
                "GDM\\": "./"
            }
        },
        "notification-url": "https://packagist.org/downloads/",
        "authors": [
            {
                "name": "Corey Sewell",
                "email": "corey@gurudigal.nz"
            }
        ],
        "description": "A Composer post-update-cmd script to automatically add Composer managed SilverStripe modules and themes to .gitignore"
    },
    {
        "name": "giggsey/libphonenumber-for-php",
        "version": "dev-master",
        "version_normalized": "9999999-dev",
        "source": {
            "type": "git",
            "url": "https://github.com/giggsey/libphonenumber-for-php.git",
            "reference": "7137cef7f295d225aec2a290f6829c1c71a1ffb0"
        },
        "dist": {
            "type": "zip",
            "url": "https://api.github.com/repos/giggsey/libphonenumber-for-php/zipball/7137cef7f295d225aec2a290f6829c1c71a1ffb0",
            "reference": "7137cef7f295d225aec2a290f6829c1c71a1ffb0",
            "shasum": ""
        },
        "require": {
            "ext-mbstring": "*",
            "giggsey/locale": "^1.0",
            "php": ">=5.3.2"
        },
        "require-dev": {
            "pear/pear-core-minimal": "^1.9",
            "pear/pear_exception": "^1.0",
            "pear/versioncontrol_git": "dev-master",
            "phing/phing": "^2.7",
            "phpunit/phpunit": "^4.8|^5.0",
            "satooshi/php-coveralls": "^1.0",
            "symfony/console": "^2.8|^3.0"
        },
        "time": "2016-11-23T15:39:02+00:00",
        "type": "library",
        "extra": {
            "branch-alias": {
                "dev-master": "7.x-dev"
            }
        },
        "installation-source": "dist",
        "autoload": {
            "psr-0": {
                "libphonenumber": "src/"
            }
        },
        "notification-url": "https://packagist.org/downloads/",
        "license": [
            "Apache-2.0"
        ],
        "authors": [
            {
                "name": "Joshua Gigg",
                "email": "giggsey@gmail.com",
                "homepage": "http://giggsey.com/"
            }
        ],
        "description": "PHP Port of Google's libphonenumber",
        "homepage": "https://github.com/giggsey/libphonenumber-for-php",
        "keywords": [
            "geocoding",
            "geolocation",
            "libphonenumber",
            "mobile",
            "phonenumber",
            "validation"
        ]
    },
    {
        "name": "giggsey/locale",
        "version": "1.1.1",
        "version_normalized": "1.1.1.0",
        "source": {
            "type": "git",
            "url": "https://github.com/giggsey/Locale.git",
            "reference": "8238764fa3f2c5bd8bdf981e2e019401d49229e3"
        },
        "dist": {
            "type": "zip",
            "url": "https://api.github.com/repos/giggsey/Locale/zipball/8238764fa3f2c5bd8bdf981e2e019401d49229e3",
            "reference": "8238764fa3f2c5bd8bdf981e2e019401d49229e3",
            "shasum": ""
        },
        "require": {
            "php": ">=5.3.2"
        },
        "require-dev": {
            "pear/pear-core-minimal": "^1.9",
            "pear/pear_exception": "^1.0",
            "pear/versioncontrol_git": "dev-master",
            "phing/phing": "~2.7",
            "phpunit/phpunit": "^4.8|^5.0",
            "satooshi/php-coveralls": "^1.0",
            "symfony/console": "^2.8|^3.0",
            "symfony/filesystem": "^2.8|^3.0",
            "symfony/finder": "^2.8|^3.0",
            "symfony/process": "^2.8|^3.0"
        },
        "time": "2016-10-24T20:49:55+00:00",
        "type": "library",
        "installation-source": "dist",
        "autoload": {
            "psr-4": {
                "Giggsey\\Locale\\": "src/"
            }
        },
        "notification-url": "https://packagist.org/downloads/",
        "license": [
            "MIT"
        ],
        "authors": [
            {
                "name": "Joshua Gigg",
                "email": "giggsey@gmail.com",
                "homepage": "http://giggsey.com/"
            }
        ],
        "description": "Locale functions required by libphonenumber-for-php"
    },
    {
        "name": "hutlim/silverstripe-addressable",
        "version": "dev-master",
        "version_normalized": "9999999-dev",
        "source": {
            "type": "git",
            "url": "https://bitbucket.org/hutlim/module-addressable.git",
            "reference": "70f3d7cf6aa272c6bad76738659e440b0e04cb74"
        },
        "dist": {
            "type": "zip",
            "url": "https://bitbucket.org/hutlim/module-addressable/get/70f3d7cf6aa272c6bad76738659e440b0e04cb74.zip",
            "reference": "70f3d7cf6aa272c6bad76738659e440b0e04cb74",
            "shasum": ""
        },
        "require": {
            "silverstripe/framework": "3.*"
        },
        "time": "2015-09-18T16:51:51+00:00",
        "type": "silverstripe-module",
        "extra": {
            "installer-name": "addressable"
        },
        "installation-source": "dist",
        "notification-url": "https://packagist.org/downloads/",
        "license": [
            "BSD-3-Clause"
        ],
        "authors": [
            {
                "name": "Hut.L",
                "email": "hutlim@gmail.com"
            }
        ],
        "description": "SilverStripe addressable and geocoding module",
        "keywords": [
            "addressable",
            "geocoding",
            "silverstripe"
        ]
    },
    {
        "name": "hutlim/silverstripe-phpexcel",
        "version": "dev-master",
        "version_normalized": "9999999-dev",
        "source": {
            "type": "git",
            "url": "https://github.com/hutlim/silverstripe-phpexcel.git",
            "reference": "d1c6fa3117835d3d821d2e7794a000abde480389"
        },
        "dist": {
            "type": "zip",
            "url": "https://api.github.com/repos/hutlim/silverstripe-phpexcel/zipball/d1c6fa3117835d3d821d2e7794a000abde480389",
            "reference": "d1c6fa3117835d3d821d2e7794a000abde480389",
            "shasum": ""
        },
        "require": {
            "phpoffice/phpexcel": "1.7.*",
            "silverstripe/framework": "~3.1"
        },
        "time": "2015-12-30T13:34:43+00:00",
        "type": "silverstripe-module",
        "extra": {
            "installer-name": "phpexcel"
        },
        "installation-source": "dist",
        "notification-url": "https://packagist.org/downloads/",
        "license": [
            "BSD-3-Clause"
        ],
        "authors": [
            {
                "name": "Hut.L",
                "email": "hutlim@gmail.com"
            }
        ],
        "description": "Exporting DataObjects to an Excel File.",
        "keywords": [
            "excel",
            "export",
            "office",
            "silverstripe"
        ]
    },
    {
        "name": "markguinn/silverstripe-email-helpers",
        "version": "dev-master",
        "version_normalized": "9999999-dev",
        "source": {
            "type": "git",
            "url": "https://github.com/markguinn/silverstripe-email-helpers.git",
            "reference": "37131aa95b12ffb258983c79ce88b8fee6513eda"
        },
        "dist": {
            "type": "zip",
            "url": "https://api.github.com/repos/markguinn/silverstripe-email-helpers/zipball/37131aa95b12ffb258983c79ce88b8fee6513eda",
            "reference": "37131aa95b12ffb258983c79ce88b8fee6513eda",
            "shasum": ""
        },
        "require": {
            "pelago/emogrifier": "~1.0",
            "phpmailer/phpmailer": "~5.2.8",
            "silverstripe/framework": "~3.0"
        },
        "replace": {
            "markguinn/silverstripe-email-helpers": "*"
        },
        "require-dev": {
            "phpunit/phpunit": "3.7.*@stable"
        },
        "time": "2016-05-13T14:19:09+00:00",
        "type": "silverstripe-module",
        "extra": {
            "installer-name": "email-helpers",
            "branch-alias": {
                "dev-master": "1.0.x-dev"
            }
        },
        "installation-source": "dist",
        "notification-url": "https://packagist.org/downloads/",
        "authors": [
            {
                "name": "Mark Guinn",
                "homepage": "http://github.com/markguinn",
                "role": "Developer"
            }
        ],
        "description": "Silverstripe extension containing SMTP mailer class and some other classes for HTML emails",
        "keywords": [
            "email",
            "emogrifier",
            "silverstripe",
            "smtp"
        ]
    },
    {
        "name": "pelago/emogrifier",
        "version": "dev-master",
        "version_normalized": "9999999-dev",
        "source": {
            "type": "git",
            "url": "https://github.com/MyIntervals/emogrifier.git",
            "reference": "a325863d2a2872f72facbf5513a396966b03a45e"
        },
        "dist": {
            "type": "zip",
            "url": "https://api.github.com/repos/MyIntervals/emogrifier/zipball/a325863d2a2872f72facbf5513a396966b03a45e",
            "reference": "a325863d2a2872f72facbf5513a396966b03a45e",
            "shasum": ""
        },
        "require": {
            "php": ">=5.4.0,<=7.1.99"
        },
        "require-dev": {
            "phpunit/phpunit": "4.8.27",
            "squizlabs/php_codesniffer": "2.6.0"
        },
        "time": "2016-09-26T07:15:35+00:00",
        "type": "library",
        "extra": {
            "branch-alias": {
                "dev-master": "1.2.x-dev"
            }
        },
        "installation-source": "dist",
        "autoload": {
            "psr-4": {
                "Pelago\\": "Classes/"
            }
        },
        "notification-url": "https://packagist.org/downloads/",
        "license": [
            "MIT"
        ],
        "authors": [
            {
                "name": "John Reeve",
                "email": "jreeve@pelagodesign.com"
            },
            {
                "name": "Cameron Brooks"
            },
            {
                "name": "Jaime Prado"
            },
            {
                "name": "Oliver Klee",
                "email": "typo3-coding@oliverklee.de"
            },
            {
                "name": "Roman Ožana",
                "email": "ozana@omdesign.cz"
            }
        ],
        "description": "Converts CSS styles into inline style attributes in your HTML code",
        "homepage": "http://www.pelagodesign.com/sidecar/emogrifier/"
    },
    {
        "name": "phpmailer/phpmailer",
        "version": "v5.2.16",
        "version_normalized": "5.2.16.0",
        "source": {
            "type": "git",
            "url": "https://github.com/PHPMailer/PHPMailer.git",
            "reference": "1d85f9ef3ecfc42bbc4f3c70d5e37ca9a65f629a"
        },
        "dist": {
            "type": "zip",
            "url": "https://api.github.com/repos/PHPMailer/PHPMailer/zipball/1d85f9ef3ecfc42bbc4f3c70d5e37ca9a65f629a",
            "reference": "1d85f9ef3ecfc42bbc4f3c70d5e37ca9a65f629a",
            "shasum": ""
        },
        "require": {
            "php": ">=5.0.0"
        },
        "require-dev": {
            "phpdocumentor/phpdocumentor": "*",
            "phpunit/phpunit": "4.7.*"
        },
        "suggest": {
            "league/oauth2-google": "Needed for Google XOAUTH2 authentication"
        },
        "time": "2016-06-06T09:09:37+00:00",
        "type": "library",
        "installation-source": "dist",
        "autoload": {
            "classmap": [
                "class.phpmailer.php",
                "class.phpmaileroauth.php",
                "class.phpmaileroauthgoogle.php",
                "class.smtp.php",
                "class.pop3.php",
                "extras/EasyPeasyICS.php",
                "extras/ntlm_sasl_client.php"
            ]
        },
        "notification-url": "https://packagist.org/downloads/",
        "license": [
            "LGPL-2.1"
        ],
        "authors": [
            {
                "name": "Jim Jagielski",
                "email": "jimjag@gmail.com"
            },
            {
                "name": "Marcus Bointon",
                "email": "phpmailer@synchromedia.co.uk"
            },
            {
                "name": "Andy Prevost",
                "email": "codeworxtech@users.sourceforge.net"
            },
            {
                "name": "Brent R. Matzelle"
            }
        ],
        "description": "PHPMailer is a full-featured email creation and transfer class for PHP"
    },
    {
        "name": "phpoffice/phpexcel",
        "version": "1.7.9",
        "version_normalized": "1.7.9.0",
        "source": {
            "type": "git",
            "url": "https://github.com/PHPOffice/PHPExcel.git",
            "reference": "7a7634fba664249a04fc771df677a9b9f755d7ec"
        },
        "dist": {
            "type": "zip",
            "url": "https://api.github.com/repos/PHPOffice/PHPExcel/zipball/7a7634fba664249a04fc771df677a9b9f755d7ec",
            "reference": "7a7634fba664249a04fc771df677a9b9f755d7ec",
            "shasum": ""
        },
        "require": {
            "ext-xml": "*",
            "php": ">=5.2.0"
        },
        "time": "2013-05-24T11:57:42+00:00",
        "type": "library",
        "installation-source": "dist",
        "autoload": {
            "psr-0": {
                "PHPExcel": "Classes/"
            }
        },
        "notification-url": "https://packagist.org/downloads/",
        "license": [
            "LGPL"
        ],
        "authors": [
            {
                "name": "Maarten Balliauw",
                "homepage": "http://blog.maartenballiauw.be"
            },
            {
                "name": "Mark Baker"
            },
            {
                "name": "Franck Lefevre",
                "homepage": "http://blog.rootslabs.net"
            },
            {
                "name": "Erik Tilt"
            }
        ],
        "description": "PHPExcel - OpenXML - Read, Create and Write Spreadsheet documents in PHP - Spreadsheet engine",
        "homepage": "http://phpexcel.codeplex.com",
        "keywords": [
            "OpenXML",
            "excel",
            "php",
            "spreadsheet",
            "xls",
            "xlsx"
        ],
        "abandoned": "phpoffice/phpspreadsheet"
    },
    {
        "name": "phpunit/php-code-coverage",
        "version": "1.2.x-dev",
        "version_normalized": "1.2.9999999.9999999-dev",
        "source": {
            "type": "git",
            "url": "https://github.com/sebastianbergmann/php-code-coverage.git",
            "reference": "fe2466802556d3fe4e4d1d58ffd3ccfd0a19be0b"
        },
        "dist": {
            "type": "zip",
            "url": "https://api.github.com/repos/sebastianbergmann/php-code-coverage/zipball/fe2466802556d3fe4e4d1d58ffd3ccfd0a19be0b",
            "reference": "fe2466802556d3fe4e4d1d58ffd3ccfd0a19be0b",
            "shasum": ""
        },
        "require": {
            "php": ">=5.3.3",
            "phpunit/php-file-iterator": ">=1.3.0@stable",
            "phpunit/php-text-template": ">=1.2.0@stable",
            "phpunit/php-token-stream": ">=1.1.3,<1.3.0"
        },
        "require-dev": {
            "phpunit/phpunit": "3.7.*@dev"
        },
        "suggest": {
            "ext-dom": "*",
            "ext-xdebug": ">=2.0.5"
        },
        "time": "2014-09-02T10:13:14+00:00",
        "type": "library",
        "extra": {
            "branch-alias": {
                "dev-master": "1.2.x-dev"
            }
        },
        "installation-source": "dist",
        "autoload": {
            "classmap": [
                "PHP/"
            ]
        },
        "notification-url": "https://packagist.org/downloads/",
        "include-path": [
            ""
        ],
        "license": [
            "BSD-3-Clause"
        ],
        "authors": [
            {
                "name": "Sebastian Bergmann",
                "email": "sb@sebastian-bergmann.de",
                "role": "lead"
            }
        ],
        "description": "Library that provides collection, processing, and rendering functionality for PHP code coverage information.",
        "homepage": "https://github.com/sebastianbergmann/php-code-coverage",
        "keywords": [
            "coverage",
            "testing",
            "xunit"
        ]
    },
    {
        "name": "phpunit/php-file-iterator",
        "version": "dev-master",
        "version_normalized": "9999999-dev",
        "source": {
            "type": "git",
            "url": "https://github.com/sebastianbergmann/php-file-iterator.git",
            "reference": "3cc8f69b3028d0f96a9078e6295d86e9bf019be5"
        },
        "dist": {
            "type": "zip",
            "url": "https://api.github.com/repos/sebastianbergmann/php-file-iterator/zipball/3cc8f69b3028d0f96a9078e6295d86e9bf019be5",
            "reference": "3cc8f69b3028d0f96a9078e6295d86e9bf019be5",
            "shasum": ""
        },
        "require": {
            "php": ">=5.3.3"
        },
        "time": "2016-10-03T07:40:28+00:00",
        "type": "library",
        "extra": {
            "branch-alias": {
                "dev-master": "1.4.x-dev"
            }
        },
        "installation-source": "dist",
        "autoload": {
            "classmap": [
                "src/"
            ]
        },
        "notification-url": "https://packagist.org/downloads/",
        "license": [
            "BSD-3-Clause"
        ],
        "authors": [
            {
                "name": "Sebastian Bergmann",
                "email": "sb@sebastian-bergmann.de",
                "role": "lead"
            }
        ],
        "description": "FilterIterator implementation that filters files based on a list of suffixes.",
        "homepage": "https://github.com/sebastianbergmann/php-file-iterator/",
        "keywords": [
            "filesystem",
            "iterator"
        ]
    },
    {
        "name": "phpunit/php-text-template",
        "version": "1.2.1",
        "version_normalized": "1.2.1.0",
        "source": {
            "type": "git",
            "url": "https://github.com/sebastianbergmann/php-text-template.git",
            "reference": "31f8b717e51d9a2afca6c9f046f5d69fc27c8686"
        },
        "dist": {
            "type": "zip",
            "url": "https://api.github.com/repos/sebastianbergmann/php-text-template/zipball/31f8b717e51d9a2afca6c9f046f5d69fc27c8686",
            "reference": "31f8b717e51d9a2afca6c9f046f5d69fc27c8686",
            "shasum": ""
        },
        "require": {
            "php": ">=5.3.3"
        },
        "time": "2015-06-21T13:50:34+00:00",
        "type": "library",
        "installation-source": "dist",
        "autoload": {
            "classmap": [
                "src/"
            ]
        },
        "notification-url": "https://packagist.org/downloads/",
        "license": [
            "BSD-3-Clause"
        ],
        "authors": [
            {
                "name": "Sebastian Bergmann",
                "email": "sebastian@phpunit.de",
                "role": "lead"
            }
        ],
        "description": "Simple template engine.",
        "homepage": "https://github.com/sebastianbergmann/php-text-template/",
        "keywords": [
            "template"
        ]
    },
    {
        "name": "phpunit/php-timer",
        "version": "1.0.8",
        "version_normalized": "1.0.8.0",
        "source": {
            "type": "git",
            "url": "https://github.com/sebastianbergmann/php-timer.git",
            "reference": "38e9124049cf1a164f1e4537caf19c99bf1eb260"
        },
        "dist": {
            "type": "zip",
            "url": "https://api.github.com/repos/sebastianbergmann/php-timer/zipball/38e9124049cf1a164f1e4537caf19c99bf1eb260",
            "reference": "38e9124049cf1a164f1e4537caf19c99bf1eb260",
            "shasum": ""
        },
        "require": {
            "php": ">=5.3.3"
        },
        "require-dev": {
            "phpunit/phpunit": "~4|~5"
        },
        "time": "2016-05-12T18:03:57+00:00",
        "type": "library",
        "installation-source": "dist",
        "autoload": {
            "classmap": [
                "src/"
            ]
        },
        "notification-url": "https://packagist.org/downloads/",
        "license": [
            "BSD-3-Clause"
        ],
        "authors": [
            {
                "name": "Sebastian Bergmann",
                "email": "sb@sebastian-bergmann.de",
                "role": "lead"
            }
        ],
        "description": "Utility class for timing",
        "homepage": "https://github.com/sebastianbergmann/php-timer/",
        "keywords": [
            "timer"
        ]
    },
    {
        "name": "phpunit/php-token-stream",
        "version": "1.2.2",
        "version_normalized": "1.2.2.0",
        "source": {
            "type": "git",
            "url": "https://github.com/sebastianbergmann/php-token-stream.git",
            "reference": "ad4e1e23ae01b483c16f600ff1bebec184588e32"
        },
        "dist": {
            "type": "zip",
            "url": "https://api.github.com/repos/sebastianbergmann/php-token-stream/zipball/ad4e1e23ae01b483c16f600ff1bebec184588e32",
            "reference": "ad4e1e23ae01b483c16f600ff1bebec184588e32",
            "shasum": ""
        },
        "require": {
            "ext-tokenizer": "*",
            "php": ">=5.3.3"
        },
        "time": "2014-03-03T05:10:30+00:00",
        "type": "library",
        "extra": {
            "branch-alias": {
                "dev-master": "1.2-dev"
            }
        },
        "installation-source": "dist",
        "autoload": {
            "classmap": [
                "PHP/"
            ]
        },
        "notification-url": "https://packagist.org/downloads/",
        "include-path": [
            ""
        ],
        "license": [
            "BSD-3-Clause"
        ],
        "authors": [
            {
                "name": "Sebastian Bergmann",
                "email": "sb@sebastian-bergmann.de",
                "role": "lead"
            }
        ],
        "description": "Wrapper around PHP's tokenizer extension.",
        "homepage": "https://github.com/sebastianbergmann/php-token-stream/",
        "keywords": [
            "tokenizer"
        ]
    },
    {
        "name": "phpunit/phpunit",
        "version": "3.7.38",
        "version_normalized": "3.7.38.0",
        "source": {
            "type": "git",
            "url": "https://github.com/sebastianbergmann/phpunit.git",
            "reference": "38709dc22d519a3d1be46849868aa2ddf822bcf6"
        },
        "dist": {
            "type": "zip",
            "url": "https://api.github.com/repos/sebastianbergmann/phpunit/zipball/38709dc22d519a3d1be46849868aa2ddf822bcf6",
            "reference": "38709dc22d519a3d1be46849868aa2ddf822bcf6",
            "shasum": ""
        },
        "require": {
            "ext-ctype": "*",
            "ext-dom": "*",
            "ext-json": "*",
            "ext-pcre": "*",
            "ext-reflection": "*",
            "ext-spl": "*",
            "php": ">=5.3.3",
            "phpunit/php-code-coverage": "~1.2",
            "phpunit/php-file-iterator": "~1.3",
            "phpunit/php-text-template": "~1.1",
            "phpunit/php-timer": "~1.0",
            "phpunit/phpunit-mock-objects": "~1.2",
            "symfony/yaml": "~2.0"
        },
        "require-dev": {
            "pear-pear.php.net/pear": "1.9.4"
        },
        "suggest": {
            "phpunit/php-invoker": "~1.1"
        },
        "time": "2014-10-17T09:04:17+00:00",
        "bin": [
            "composer/bin/phpunit"
        ],
        "type": "library",
        "extra": {
            "branch-alias": {
                "dev-master": "3.7.x-dev"
            }
        },
        "installation-source": "dist",
        "autoload": {
            "classmap": [
                "PHPUnit/"
            ]
        },
        "notification-url": "https://packagist.org/downloads/",
        "include-path": [
            "",
            "../../symfony/yaml/"
        ],
        "license": [
            "BSD-3-Clause"
        ],
        "authors": [
            {
                "name": "Sebastian Bergmann",
                "email": "sebastian@phpunit.de",
                "role": "lead"
            }
        ],
        "description": "The PHP Unit Testing framework.",
        "homepage": "http://www.phpunit.de/",
        "keywords": [
            "phpunit",
            "testing",
            "xunit"
        ]
    },
    {
        "name": "phpunit/phpunit-mock-objects",
        "version": "1.2.x-dev",
        "version_normalized": "1.2.9999999.9999999-dev",
        "source": {
            "type": "git",
            "url": "https://github.com/sebastianbergmann/phpunit-mock-objects.git",
            "reference": "c39c4511c3b007539eb170c32cbc2af49a07351a"
        },
        "dist": {
            "type": "zip",
            "url": "https://api.github.com/repos/sebastianbergmann/phpunit-mock-objects/zipball/c39c4511c3b007539eb170c32cbc2af49a07351a",
            "reference": "c39c4511c3b007539eb170c32cbc2af49a07351a",
            "shasum": ""
        },
        "require": {
            "php": ">=5.3.3",
            "phpunit/php-text-template": ">=1.1.1@stable"
        },
        "require-dev": {
            "phpunit/phpunit": "3.7.*@dev"
        },
        "suggest": {
            "ext-soap": "*"
        },
        "time": "2014-02-16T12:43:56+00:00",
        "type": "library",
        "extra": {
            "branch-alias": {
                "dev-master": "1.2.x-dev"
            }
        },
        "installation-source": "dist",
        "autoload": {
            "classmap": [
                "PHPUnit/"
            ]
        },
        "notification-url": "https://packagist.org/downloads/",
        "include-path": [
            ""
        ],
        "license": [
            "BSD-3-Clause"
        ],
        "authors": [
            {
                "name": "Sebastian Bergmann",
                "email": "sb@sebastian-bergmann.de",
                "role": "lead"
            }
        ],
        "description": "Mock Object library for PHPUnit",
        "homepage": "https://github.com/sebastianbergmann/phpunit-mock-objects/",
        "keywords": [
            "mock",
            "xunit"
        ]
    },
    {
        "name": "silverstripe-australia/gridfieldextensions",
        "version": "dev-master",
        "version_normalized": "9999999-dev",
        "source": {
            "type": "git",
            "url": "https://github.com/symbiote/silverstripe-gridfieldextensions.git",
            "reference": "ba758e7cc9ee645fcbd51c3314e72be341497182"
        },
        "dist": {
            "type": "zip",
            "url": "https://api.github.com/repos/symbiote/silverstripe-gridfieldextensions/zipball/ba758e7cc9ee645fcbd51c3314e72be341497182",
            "reference": "ba758e7cc9ee645fcbd51c3314e72be341497182",
            "shasum": ""
        },
        "require": {
            "silverstripe/framework": "~3.1"
        },
        "replace": {
            "ajshort/silverstripe-gridfieldextensions": "self.version"
        },
        "time": "2016-11-17T02:38:47+00:00",
        "type": "silverstripe-module",
        "extra": {
            "installer-name": "gridfieldextensions",
            "branch-alias": {
                "dev-master": "1.4.x-dev"
            },
            "screenshots": [
                "docs/en/_images/editable-rows.png",
                "docs/en/_images/add-existing-search.png"
            ]
        },
        "installation-source": "dist",
        "notification-url": "https://packagist.org/downloads/",
        "license": [
            "BSD-3-Clause"
        ],
        "authors": [
            {
                "name": "Marcus Nyeholt",
                "email": "marcus@silverstripe.com.au"
            },
            {
                "name": "Andrew Short",
                "email": "andrewjshort@gmail.com"
            }
        ],
        "description": "A collection of useful grid field components",
        "homepage": "http://github.com/silverstripe-australia/silverstripe-gridfieldextensions",
        "keywords": [
            "gridfield",
            "silverstripe"
        ],
        "abandoned": "symbiote/silverstripe-gridfieldextensions"
    },
    {
        "name": "silverstripe/cms",
        "version": "3.1.18",
        "version_normalized": "3.1.18.0",
        "source": {
            "type": "git",
            "url": "https://github.com/silverstripe/silverstripe-cms.git",
            "reference": "e6f9e71a0fc6620d765689da24202b0d2269a895"
        },
        "dist": {
            "type": "zip",
            "url": "https://api.github.com/repos/silverstripe/silverstripe-cms/zipball/e6f9e71a0fc6620d765689da24202b0d2269a895",
            "reference": "e6f9e71a0fc6620d765689da24202b0d2269a895",
            "shasum": ""
        },
        "require": {
            "composer/installers": "*",
            "php": ">=5.3.2",
            "silverstripe/framework": "3.1.*"
        },
        "time": "2016-02-29T01:57:30+00:00",
        "type": "silverstripe-module",
        "installation-source": "dist",
        "autoload": {
            "classmap": [
                "tests/behat/"
            ]
        },
        "notification-url": "https://packagist.org/downloads/",
        "license": [
            "BSD-3-Clause"
        ],
        "authors": [
            {
                "name": "SilverStripe",
                "homepage": "http://silverstripe.com"
            },
            {
                "name": "The SilverStripe Community",
                "homepage": "http://silverstripe.org"
            }
        ],
        "description": "The SilverStripe Content Management System",
        "homepage": "http://silverstripe.org",
        "keywords": [
            "cms",
            "silverstripe"
        ]
    },
    {
        "name": "silverstripe/content-widget",
        "version": "dev-master",
        "version_normalized": "9999999-dev",
        "source": {
            "type": "git",
            "url": "https://github.com/silverstripe/silverstripe-content-widget.git",
            "reference": "3b4cb5ec14f3f2b9d258f752e2ea780a9d9ea835"
        },
        "dist": {
            "type": "zip",
            "url": "https://api.github.com/repos/silverstripe/silverstripe-content-widget/zipball/3b4cb5ec14f3f2b9d258f752e2ea780a9d9ea835",
            "reference": "3b4cb5ec14f3f2b9d258f752e2ea780a9d9ea835",
            "shasum": ""
        },
        "require": {
            "silverstripe/cms": "3.*",
            "silverstripe/framework": "3.*",
            "silverstripe/widgets": "~1.1"
        },
        "replace": {
            "burnbright/silverstripe-widget-content": "self.version"
        },
        "time": "2016-02-03T23:58:46+00:00",
        "type": "silverstripe-module",
        "extra": {
            "branch-alias": {
                "dev-master": "1.0.x-dev"
            }
        },
        "installation-source": "dist",
        "notification-url": "https://packagist.org/downloads/",
        "license": [
            "MIT"
        ],
        "authors": [
            {
                "name": "Jeremy Shipman",
                "email": "jeremy@burnbright.net"
            }
        ],
        "description": "Display HTML content in a widget",
        "keywords": [
            "content",
            "copy",
            "html",
            "text",
            "widget"
        ]
    },
    {
        "name": "silverstripe/dashboard",
        "version": "dev-master",
        "version_normalized": "9999999-dev",
        "source": {
            "type": "git",
            "url": "https://github.com/unclecheese/silverstripe-dashboard.git",
            "reference": "674e111a2de8deaf0a73c90e568c5b26240a1078"
        },
        "dist": {
            "type": "zip",
            "url": "https://api.github.com/repos/unclecheese/silverstripe-dashboard/zipball/674e111a2de8deaf0a73c90e568c5b26240a1078",
            "reference": "674e111a2de8deaf0a73c90e568c5b26240a1078",
            "shasum": ""
        },
        "require": {
            "silverstripe/cms": "~3.1",
            "silverstripe/framework": "~3.1"
        },
        "replace": {
            "silverstripe/dashboard": "*"
        },
        "time": "2016-05-26T02:53:13+00:00",
        "type": "silverstripe-module",
        "extra": {
            "installer-name": "dashboard"
        },
        "installation-source": "dist",
        "notification-url": "https://packagist.org/downloads/",
        "license": [
            "BSD-3-Clause"
        ],
        "authors": [
            {
                "name": "Uncle Cheese",
                "email": "unclecheese@leftandmain.com"
            }
        ],
        "description": "Adds a dashboard to the SilverStripe CMS",
        "keywords": [
            "cms",
            "dashboard",
            "module",
            "silverstripe"
        ]
    },
    {
        "name": "silverstripe/framework",
        "version": "3.1.18",
        "version_normalized": "3.1.18.0",
        "source": {
            "type": "git",
            "url": "https://github.com/silverstripe/silverstripe-framework.git",
            "reference": "2147205dc155e87c336c7f66063d2b089cff7816"
        },
        "dist": {
            "type": "zip",
            "url": "https://api.github.com/repos/silverstripe/silverstripe-framework/zipball/2147205dc155e87c336c7f66063d2b089cff7816",
            "reference": "2147205dc155e87c336c7f66063d2b089cff7816",
            "shasum": ""
        },
        "require": {
            "composer/installers": "*",
            "php": ">=5.3.2,<7"
        },
        "require-dev": {
            "phpunit/phpunit": "~3.7@stable"
        },
        "time": "2016-02-29T02:10:05+00:00",
        "type": "silverstripe-module",
        "installation-source": "dist",
        "autoload": {
            "classmap": [
                "tests/behat/features/bootstrap"
            ]
        },
        "notification-url": "https://packagist.org/downloads/",
        "license": [
            "BSD-3-Clause"
        ],
        "authors": [
            {
                "name": "SilverStripe",
                "homepage": "http://silverstripe.com"
            },
            {
                "name": "The SilverStripe Community",
                "homepage": "http://silverstripe.org"
            }
        ],
        "description": "The SilverStripe framework",
        "homepage": "http://silverstripe.org",
        "keywords": [
            "framework",
            "silverstripe"
        ]
    },
    {
        "name": "silverstripe/multivaluefield",
        "version": "dev-master",
        "version_normalized": "9999999-dev",
        "source": {
            "type": "git",
            "url": "https://github.com/symbiote/silverstripe-multivaluefield.git",
            "reference": "200055c8edb08e8607bf0a829475a32b9d9b2bf1"
        },
        "dist": {
            "type": "zip",
            "url": "https://api.github.com/repos/symbiote/silverstripe-multivaluefield/zipball/200055c8edb08e8607bf0a829475a32b9d9b2bf1",
            "reference": "200055c8edb08e8607bf0a829475a32b9d9b2bf1",
            "shasum": ""
        },
        "require": {
            "silverstripe/framework": "~3.1"
        },
        "time": "2016-07-26T00:58:14+00:00",
        "type": "silverstripe-module",
        "extra": {
            "branch-alias": {
                "dev-master": "2.3.x-dev"
            }
        },
        "installation-source": "dist",
        "notification-url": "https://packagist.org/downloads/",
        "license": [
            "BSD-3-Clause"
        ],
        "authors": [
            {
                "name": "Marcus Nyeholt",
                "email": "marcus@silverstripe.com.au"
            }
        ],
        "description": "A DB field + form fields for storing multiple values in a single property (serialized).",
        "keywords": [
            "dbfield",
            "formfield",
            "silverstripe"
        ],
        "abandoned": "symbiote/silverstripe-multivaluefield"
    },
    {
        "name": "silverstripe/spamprotection",
        "version": "dev-master",
        "version_normalized": "9999999-dev",
        "source": {
            "type": "git",
            "url": "https://github.com/silverstripe/silverstripe-spamprotection.git",
            "reference": "38d168bd0194f804e9b7e5055b135812cd97b920"
        },
        "dist": {
            "type": "zip",
            "url": "https://api.github.com/repos/silverstripe/silverstripe-spamprotection/zipball/38d168bd0194f804e9b7e5055b135812cd97b920",
            "reference": "38d168bd0194f804e9b7e5055b135812cd97b920",
            "shasum": ""
        },
        "require": {
            "silverstripe/framework": "~3.1"
        },
        "require-dev": {
            "phpunit/phpunit": "~3.7@stable"
        },
        "time": "2016-08-16T23:08:00+00:00",
        "type": "silverstripe-module",
        "extra": {
            "branch-alias": {
                "dev-master": "2.0.x-dev"
            }
        },
        "installation-source": "dist",
        "notification-url": "https://packagist.org/downloads/",
        "license": [
            "BSD-3-Clause"
        ],
        "authors": [
            {
                "name": "Saophalkun Ponlu",
                "email": "phalkunz@silverstripe.com"
            },
            {
                "name": "Will Rossiter",
                "email": "will@fullscreen.io"
            }
        ],
        "description": "Spam protection module for SilverStripe.",
        "keywords": [
            "silverstripe",
            "spamprotection"
        ]
    },
    {
        "name": "silverstripe/translatable",
        "version": "2.0.x-dev",
        "version_normalized": "2.0.9999999.9999999-dev",
        "source": {
            "type": "git",
            "url": "https://github.com/silverstripe/silverstripe-translatable.git",
            "reference": "8d31789a70ec3f6e288dbdfbd16e20585f95a9d7"
        },
        "dist": {
            "type": "zip",
            "url": "https://api.github.com/repos/silverstripe/silverstripe-translatable/zipball/8d31789a70ec3f6e288dbdfbd16e20585f95a9d7",
            "reference": "8d31789a70ec3f6e288dbdfbd16e20585f95a9d7",
            "shasum": ""
        },
        "require": {
            "php": ">=5.3.2",
            "silverstripe/cms": "3.1.*",
            "silverstripe/framework": "3.1.*"
        },
        "require-dev": {
            "phpunit/phpunit": "~3.7@stable",
            "silverstripe/mssql": "*",
            "silverstripe/postgresql": "*",
            "silverstripe/sqlite3": "*"
        },
        "time": "2016-01-13T09:58:33+00:00",
        "type": "silverstripe-module",
        "extra": {
            "screenshots": [
                "http://www.silverstripe.org/assets/Uploads/translatable4-small.png"
            ]
        },
        "installation-source": "dist",
        "notification-url": "https://packagist.org/downloads/",
        "license": [
            "BSD-3-Clause"
        ],
        "authors": [
            {
                "name": "Ingo Schommer",
                "email": "ingo@silverstripe.com",
                "homepage": "http://chillu.com"
            }
        ],
        "description": "Allows translation of DataObject and SiteTree records into multiple languages ",
        "homepage": "https://github.com/silverstripe/silverstripe-translatable/",
        "keywords": [
            "cms",
            "globalization",
            "i18n",
            "localization",
            "silverstripe"
        ]
    },
    {
        "name": "silverstripe/widgets",
        "version": "1.1.x-dev",
        "version_normalized": "1.1.9999999.9999999-dev",
        "source": {
            "type": "git",
            "url": "https://github.com/silverstripe/silverstripe-widgets.git",
            "reference": "799c2f1bf0ea7b6c26501343369d997937f9acfc"
        },
        "dist": {
            "type": "zip",
            "url": "https://api.github.com/repos/silverstripe/silverstripe-widgets/zipball/799c2f1bf0ea7b6c26501343369d997937f9acfc",
            "reference": "799c2f1bf0ea7b6c26501343369d997937f9acfc",
            "shasum": ""
        },
        "require": {
            "silverstripe/cms": "3.1.*",
            "silverstripe/framework": "3.1.*"
        },
        "require-dev": {
            "phpunit/phpunit": "~3.7@stable"
        },
        "time": "2015-11-11T03:24:08+00:00",
        "type": "silverstripe-module",
        "extra": {
            "branch-alias": {
                "dev-master": "1.1.x-dev"
            }
        },
        "installation-source": "dist",
        "notification-url": "https://packagist.org/downloads/",
        "authors": [
            {
                "name": "Ingo Schommer",
                "email": "ingo@silverstripe.com"
            }
        ],
        "description": "Widgets are small pieces of functionality such as showing the latest Comments or Flickr Photos. They normally display on the sidebar of your website.",
        "keywords": [
            "blog",
            "silverstripe",
            "widgets"
        ]
    },
    {
        "name": "symfony/finder",
        "version": "3.4.x-dev",
        "version_normalized": "3.4.9999999.9999999-dev",
        "source": {
            "type": "git",
            "url": "https://github.com/symfony/finder.git",
            "reference": "54ba444dddc5bd5708a34bd095ea67c6eb54644d"
        },
        "dist": {
            "type": "zip",
            "url": "https://api.github.com/repos/symfony/finder/zipball/54ba444dddc5bd5708a34bd095ea67c6eb54644d",
            "reference": "54ba444dddc5bd5708a34bd095ea67c6eb54644d",
            "shasum": ""
        },
        "require": {
            "php": "^5.5.9|>=7.0.8"
        },
        "time": "2018-10-03T08:46:40+00:00",
        "type": "library",
        "extra": {
            "branch-alias": {
                "dev-master": "3.4-dev"
            }
        },
        "installation-source": "source",
        "autoload": {
            "psr-4": {
                "Symfony\\Component\\Finder\\": ""
            },
            "exclude-from-classmap": [
                "/Tests/"
            ]
        },
        "notification-url": "https://packagist.org/downloads/",
        "license": [
            "MIT"
        ],
        "authors": [
            {
                "name": "Fabien Potencier",
                "email": "fabien@symfony.com"
            },
            {
                "name": "Symfony Community",
                "homepage": "https://symfony.com/contributors"
            }
        ],
        "description": "Symfony Finder Component",
        "homepage": "https://symfony.com"
    },
    {
        "name": "symfony/yaml",
        "version": "2.8.x-dev",
        "version_normalized": "2.8.9999999.9999999-dev",
        "source": {
            "type": "git",
            "url": "https://github.com/symfony/yaml.git",
            "reference": "befb26a3713c97af90d25dd12e75621ef14d91ff"
        },
        "dist": {
            "type": "zip",
            "url": "https://api.github.com/repos/symfony/yaml/zipball/befb26a3713c97af90d25dd12e75621ef14d91ff",
            "reference": "befb26a3713c97af90d25dd12e75621ef14d91ff",
            "shasum": ""
        },
        "require": {
            "php": ">=5.3.9"
        },
        "time": "2016-11-14T16:15:57+00:00",
        "type": "library",
        "extra": {
            "branch-alias": {
                "dev-master": "2.8-dev"
            }
        },
        "installation-source": "dist",
        "autoload": {
            "psr-4": {
                "Symfony\\Component\\Yaml\\": ""
            },
            "exclude-from-classmap": [
                "/Tests/"
            ]
        },
        "notification-url": "https://packagist.org/downloads/",
        "license": [
            "MIT"
        ],
        "authors": [
            {
                "name": "Fabien Potencier",
                "email": "fabien@symfony.com"
            },
            {
                "name": "Symfony Community",
                "homepage": "https://symfony.com/contributors"
            }
        ],
        "description": "Symfony Yaml Component",
        "homepage": "https://symfony.com"
    },
    {
        "name": "undefinedoffset/sortablegridfield",
        "version": "dev-master",
        "version_normalized": "9999999-dev",
        "source": {
            "type": "git",
            "url": "https://github.com/UndefinedOffset/SortableGridField.git",
            "reference": "94e916b4d91c7c0672a138a6c0a5e82a17c69f91"
        },
        "dist": {
            "type": "zip",
            "url": "https://api.github.com/repos/UndefinedOffset/SortableGridField/zipball/94e916b4d91c7c0672a138a6c0a5e82a17c69f91",
            "reference": "94e916b4d91c7c0672a138a6c0a5e82a17c69f91",
            "shasum": ""
        },
        "require": {
            "composer/installers": "*",
            "silverstripe/framework": ">=3.0.1"
        },
        "time": "2016-11-24T14:01:29+00:00",
        "type": "silverstripe-module",
        "extra": {
            "installer-name": "sortablegridfield"
        },
        "installation-source": "dist",
        "notification-url": "https://packagist.org/downloads/",
        "license": [
            "BSD-3-Clause"
        ],
        "authors": [
            {
                "name": "Ed Chipman",
                "homepage": "http://www.edchipman.ca",
                "role": "Developer"
            }
        ],
        "description": "Adds drag and drop functionality to SilverStripe 3.0's GridField",
        "keywords": [
            "gridfield",
            "silverstripe"
        ]
    },
    {
        "name": "zircote/swagger-php",
        "version": "2.x-dev",
        "version_normalized": "2.9999999.9999999.9999999-dev",
        "source": {
            "type": "git",
            "url": "https://github.com/zircote/swagger-php.git",
            "reference": "941f0b62b7a2f2d784d5de13b146682e65449f53"
        },
        "dist": {
            "type": "zip",
            "url": "https://api.github.com/repos/zircote/swagger-php/zipball/941f0b62b7a2f2d784d5de13b146682e65449f53",
            "reference": "941f0b62b7a2f2d784d5de13b146682e65449f53",
            "shasum": ""
        },
        "require": {
            "doctrine/annotations": "*",
            "php": ">=5.6",
            "symfony/finder": ">=2.2"
        },
        "require-dev": {
            "phpunit/phpunit": ">=4.8.35 <=5.6",
            "squizlabs/php_codesniffer": ">=2.7",
            "zendframework/zend-form": "<2.8"
        },
        "time": "2018-01-26T10:07:40+00:00",
        "bin": [
            "bin/swagger"
        ],
        "type": "library",
        "installation-source": "source",
        "autoload": {
            "psr-4": {
                "Swagger\\": "src"
            },
            "files": [
                "src/functions.php"
            ]
        },
        "notification-url": "https://packagist.org/downloads/",
        "license": [
            "Apache2"
        ],
        "authors": [
            {
                "name": "Robert Allen",
                "email": "zircote@gmail.com",
                "homepage": "http://www.zircote.com"
            },
            {
                "name": "Bob Fanger",
                "email": "bfanger@gmail.com",
                "homepage": "http://bfanger.nl"
            }
        ],
        "description": "Swagger-PHP - Generate interactive documentation for your RESTful API using phpdoc annotations",
        "homepage": "https://github.com/zircote/swagger-php/",
        "keywords": [
            "api",
            "json",
            "rest",
            "service discovery"
        ]
    }
]
